-------------------------------------------------------------------------------
Test set: org.doc2pdf.Doc2PdfApplicationTests
-------------------------------------------------------------------------------
Tests run: 1, Failures: 0, Errors: 0, Skipped: 0, Time elapsed: 1.679 s - in org.doc2pdf.Doc2PdfApplicationTests
